{
  "defaultSeverity": "error",
  "extends": [
    "tslint:recommended"
  ],
  "jsRules": {},
  "rules": {
    "trailing-comma": [false],
    "semicolon": [true, "never"],
    "no-console": [false]
  },
  "rulesDirectory": []
}